^C:\USERS\HP\DESKTOP\PROJECT\HELLOWORD\HELLOWORD\HELLOWORD.CPP
C:\USERS\HP\DESKTOP\PROJECT\HELLOWORD\HELLOWORD\DEBUG\VC142.PDB
C:\USERS\HP\DESKTOP\PROJECT\HELLOWORD\HELLOWORD\DEBUG\VC142.IDB
C:\USERS\HP\DESKTOP\PROJECT\HELLOWORD\HELLOWORD\DEBUG\HELLOWORD.OBJ
